PERIOD	VALUE
2018-01	76.5
2018-02	102.7
2018-03	105.0
2018-04	102.8
2018-05	101.3
2018-06	104.1
2018-07	92.4
2018-08	97.5
2018-09	101.1
2018-10	101.5
2018-11	100.5
2018-12	130.4
2019-01	75.6
2019-02	101.8