PERIOD	VALUE
2018-01	111.0
2018-02	110.5
2018-03	108.7
2018-04	107.6
2018-05	107.6
2018-06	107.2
2018-07	107.5
2018-08	106.8
2018-09	104.9
2018-10	105.2
2018-11	104.2
2018-12	102.9
2019-01	101.1
2019-02	100.7