PERIOD	VALUE
2001-01	28.2
2001-02	25.6
2001-03	23.7
2001-04	22.6
2001-05	21.9
2001-06	22.0
2001-07	19.2
2001-08	17.1
2001-09	14.3
2001-10	10.9
2001-11	9.8
2001-12	8.3
2002-01	7.1
2002-02	5.4
2002-03	4.7
2002-04	6.0
2002-05	7.2
2002-06	7.7
2002-07	9.9
2002-08	12.1
2002-09	13.6
2002-10	15.4
2002-11	17.1
2002-12	17.7
2003-01	18.0
2003-02	20.5
2003-03	22.2
2003-04	20.9
2003-05	18.4
2003-06	15.4
2003-07	15.0
2003-08	14.8
2003-09	15.1
2003-10	13.7
2003-11	12.2
2003-12	12.5
2004-01	15.6
2004-02	16.6
2004-03	15.8
2004-04	17.9
2004-05	21.4
2004-06	24.2
2004-07	22.5
2004-08	22.5
2004-09	24.2
2004-10	25.9
2004-11	28.8
2004-12	28.8
2005-01	18.7
2005-02	17.3
2005-03	19.4
2005-04	20.3
2005-05	21.8
2005-06	19.8
2005-07	18.5
2005-08	17.9
2005-09	18.6
2005-10	17.6
2005-11	15.4
2005-12	13.4
2006-01	14.2
2006-02	16.7
2006-03	15.6
2006-04	13.2
2006-05	11.9
2006-06	12.7
2006-07	14.6
2006-08	14.5
2006-09	12.4
2006-10	7.9
2006-11	6.5
2006-12	10.4
2007-01	11.9
2007-02	5.9
2007-03	3.4
2007-04	7.8
2007-05	11.1
2007-06	12.7
2007-07	11.8
2007-08	11.0
2007-09	8.8
2007-10	14.2
2007-11	22.2
2007-12	25.1
2008-01	25.2
2008-02	26.5
2008-03	27.4
2008-04	27.4
2008-05	25.1
2008-06	28.1
2008-07	33.7
2008-08	31.5
2008-09	25.7
2008-10	17.4
2008-11	4.2
2008-12	-7.0
2009-01	-9.0
2009-02	-4.9
2009-03	-2.7
2009-04	-4.1
2009-05	-6.5
2009-06	-9.4
2009-07	-12.3
2009-08	-10.8
2009-09	-5.5
2009-10	-1.8
2009-11	6.5
2009-12	13.9
2010-01	32.2
2010-02	22.7
2010-03	19.2
2010-04	17.9
2010-05	19.1
2010-06	9.8
2010-07	6.8
2010-08	9.0
2010-09	5.9
2010-10	10.4
2010-11	16.0
2010-12	16.7
2011-01	19.7
2011-02	21.4
2011-03	21.0
2011-04	20.2
2011-05	19.0
2011-06	18.4
2011-07	15.1
2011-08	16.1
2011-09	17.0
2011-10	15.5
2011-11	13.1
2011-12	12.0
2012-01	8.9
2012-02	7.1
2012-03	7.5
2012-04	6.9
2012-05	3.3
2012-06	4.3
2012-07	4.3
2012-08	6.9
2012-09	11.6
2012-10	8.8
2012-11	6.7
2012-12	5.1
2013-01	4.7
2013-02	4.7
2013-03	3.4
2013-04	1.6
2013-05	2.7
2013-06	3.7
2013-07	6.6
2013-08	4.6
2013-09	1.9
2013-10	2.0
2013-11	1.6
2013-12	3.7
2014-01	4.5
2014-02	3.2
2014-03	5.0
2014-04	7.2
2014-05	8.9
2014-06	8.9
2014-07	9.0
2014-08	5.7
2014-09	3.5
2014-10	5.1
2014-11	6.1
2014-12	5.9
2015-01	7.0
2015-02	9.3
2015-03	13.0
2015-04	15.0
2015-05	13.4
2015-06	13.1
2015-07	13.1
2015-08	13.7
2015-09	12.7
2015-10	14.2
2015-11	13.9
2015-12	10.7
2016-01	7.3
2016-02	3.5
2016-03	0.8
2016-04	0.9
2016-05	3.2
2016-06	5.1
2016-07	4.5
2016-08	3.1
2016-09	5.1
2016-10	3.1
2016-11	4.3
2016-12	7.4