PERIOD	VALUE
2001-01	1.3
2001-02	1.1
2001-03	0.7
2001-04	0.8
2001-05	1.1
2001-06	2.5
2001-07	0.5
2001-08	0.0
2001-09	-0.2
2001-10	0.4
2001-11	0.2
2001-12	-0.3
2002-01	0.2
2002-02	-0.5
2002-03	0.0
2002-04	2.1
2002-05	2.2
2002-06	3.0
2002-07	2.6
2002-08	2.0
2002-09	1.1
2002-10	2.1
2002-11	1.6
2002-12	0.1
2003-01	0.5
2003-02	1.6
2003-03	1.4
2003-04	1.1
2003-05	0.1
2003-06	0.4
2003-07	2.2
2003-08	1.8
2003-09	1.4
2003-10	0.8
2003-11	0.2
2003-12	0.5
2004-01	4.0
2004-02	3.4
2004-03	1.3
2004-04	2.1
2004-05	2.1
2004-06	2.8
2004-07	1.2
2004-08	1.8
2004-09	3.1
2004-10	1.8
2004-11	2.0
2004-12	0.1
2005-01	0.5
2005-02	1.3
2005-03	2.5
2005-04	2.5
2005-05	2.7
2005-06	0.1
2005-07	0.5
2005-08	2.0
2005-09	2.8
2005-10	0.9
2005-11	-0.9
2005-12	-2.1
2006-01	0.5
2006-02	3.3
2006-03	2.1
2006-04	0.6
2006-05	1.8
2006-06	0.8
2006-07	1.7
2006-08	2.2
2006-09	1.4
2006-10	-2.8
2006-11	-2.5
2006-12	1.0
2007-01	1.9
2007-02	-0.1
2007-03	0.0
2007-04	4.3
2007-05	5.4
2007-06	2.5
2007-07	0.7
2007-08	2.1
2007-09	-0.6
2007-10	-0.1
2007-11	3.1
2007-12	3.7
2008-01	1.6
2008-02	0.7
2008-03	0.7
2008-04	4.5
2008-05	3.5
2008-06	4.9
2008-07	5.4
2008-08	0.5
2008-09	-5.0
2008-10	-6.6
2008-11	-8.4
2008-12	-7.6
2009-01	-3.4
2009-02	5.1
2009-03	2.9
2009-04	2.4
2009-05	0.6
2009-06	2.2
2009-07	1.8
2009-08	1.4
2009-09	1.2
2009-10	-0.9
2009-11	-0.5
2009-12	0.5
2010-01	-1.1
2010-02	2.0
2010-03	1.8
2010-04	3.2
2010-05	2.7
2010-06	-3.1
2010-07	0.6
2010-08	3.3
2010-09	-1.3
2010-10	2.2
2010-11	4.4
2010-12	1.0
2011-01	2.2
2011-02	3.4
2011-03	1.4
2011-04	2.0
2011-05	1.1
2011-06	-2.3
2011-07	-1.8
2011-08	3.3
2011-09	0.5
2011-10	0.9
2011-11	1.0
2011-12	0.2
2012-01	-0.2
2012-02	1.1
2012-03	2.2
2012-04	0.7
2012-05	-2.4
2012-06	-0.8
2012-07	-1.1
2012-08	5.1
2012-09	4.8
2012-10	-1.6
2012-11	-1.2
2012-12	-1.1
2013-01	-0.4
2013-02	0.8
2013-03	0.5
2013-04	-1.2
2013-05	-1.0
2013-06	0.4
2013-07	2.0
2013-08	2.8
2013-09	1.4
2013-10	-1.2
2013-11	-1.5
2013-12	1.0
2014-01	0.4
2014-02	-0.4
2014-03	2.3
2014-04	0.7
2014-05	0.4
2014-06	0.8
2014-07	1.6
2014-08	0.0
2014-09	-0.8
2014-10	0.3
2014-11	-0.5
2014-12	0.8
2015-01	1.3
2015-02	2.1
2015-03	5.5
2015-04	2.7
2015-05	-1.2
2015-06	0.7
2015-07	1.5
2015-08	0.1
2015-09	-1.1
2015-10	1.8
2015-11	-0.7
2015-12	-2.2
2016-01	-1.4
2016-02	-1.6
2016-03	3.1
2016-04	2.6
2016-05	1.0
2016-06	2.7
2016-07	0.1
2016-08	-1.4
2016-09	0.7
2016-10	0.3
2016-11	0.7
2016-12	0.6