PERIOD	VALUE
2001-01	5
2001-02	114.5
2001-03	116.6
2001-04	118.7
2001-05	120.8
2001-06	122.8
2001-07	NA
2001-08	123.3
2001-09	124.1
2001-10	125.4
2001-11	127.1
2001-12	129.2
2002-01	133.2
2002-02	134.7
2002-03	136.2
2002-04	137.7
2002-05	140.1
2002-06	140.8
2002-07	141.8
2002-08	141.9
2002-09	142.5
2002-10	144.0
2002-11	146.4
2002-12	148.6
2003-01	152.2
2003-02	154.7
2003-03	156.3
2003-04	157.9
2003-05	159.1
2003-06	160.4
2003-07	161.5
2003-08	160.9
2003-09	161.4
2003-10	163.0
2003-11	164.6
2003-12	166.4
2004-01	169.3
2004-02	171.0
2004-03	172.3
2004-04	174.0
2004-05	175.3
2004-06	176.6
2004-07	178.3
2004-08	179.0
2004-09	179.8
2004-10	181.8
2004-11	183.9
2004-12	185.9
2005-01	190.8
2005-02	193.2
2005-03	195.7
2005-04	197.9
2005-05	199.5
2005-06	200.8
2005-07	201.7
2005-08	201.5
2005-09	202.0
2005-10	203.1
2005-11	204.6
2005-12	206.2
2006-01	211.3
2006-02	214.8
2006-03	216.5
2006-04	217.3
2006-05	218.3
2006-06	219.0
2006-07	220.4
2006-08	220.8
2006-09	221.0
2006-10	221.7
2006-11	223.1
2006-12	224.8
2007-01	228.6
2007-02	231.1
2007-03	232.5
2007-04	233.8
2007-05	235.3
2007-06	237.5
2007-07	239.6
2007-08	239.8
2007-09	241.7
2007-10	245.7
2007-11	248.7
2007-12	251.5
2008-01	257.3
2008-02	260.4
2008-03	263.5
2008-04	267.3
2008-05	270.9
2008-06	273.5
2008-07	274.9
2008-08	275.8
2008-09	278.1
2008-10	280.6
2008-11	282.9
2008-12	284.9
2009-01	291.7
2009-02	296.5
2009-03	300.3
2009-04	302.4
2009-05	304.2
2009-06	306.0
2009-07	307.9
2009-08	307.9
2009-09	307.8
2009-10	307.8
2009-11	308.7
2009-12	310.0
2010-01	315.1
2010-02	317.7
2010-03	319.8
2010-04	320.7
2010-05	322.3
2010-06	323.6
2010-07	324.8
2010-08	326.6
2010-09	329.3
2010-10	330.9
2010-11	333.6
2010-12	337.2
2011-01	345.2
2011-02	347.9
2011-03	350.0
2011-04	351.5
2011-05	353.2
2011-06	354.0
2011-07	354.0
2011-08	353.2
2011-09	353.0
2011-10	354.7
2011-11	356.2
2011-12	357.8
2012-01	359.5
2012-02	360.9
2012-03	363.0
2012-04	364.1
2012-05	366.0
2012-06	369.2
2012-07	373.8
2012-08	374.1
2012-09	376.2
2012-10	377.9
2012-11	379.2
2012-12	381.2
2013-01	384.9
2013-02	387.1
2013-03	388.5
2013-04	390.4
2013-05	393.0
2013-06	394.7
2013-07	397.9
2013-08	398.5
2013-09	399.3
2013-10	401.6
2013-11	403.9
2013-12	405.9
2014-01	408.3
2014-02	411.2
2014-03	415.3
2014-04	419.1
2014-05	422.8
2014-06	425.5
2014-07	427.5
2014-08	428.6
2014-09	431.4
2014-10	434.9
2014-11	440.5
2014-12	452.0
2015-01	469.4
2015-02	479.8
2015-03	485.6
2015-04	487.8
2015-05	489.5
2015-06	490.5
2015-07	494.4
2015-08	496.1
2015-09	499.0
2015-10	502.7
2015-11	506.4
2015-12	510.3
2016-01	515.2
2016-02	518.5
2016-03	520.9
2016-04	523.2
2016-05	525.3
2016-06	527.2
2016-07	530.1
2016-08	530.1
2016-09	531.0
2016-10	533.3
2016-11	535.7
2016-12	537.8
2017-01	541.2
2017-02	542.4
2017-03	543.1
2017-04	544.8
2017-05	546.8
2017-06	550.2
2017-07	550.5
2017-08	547.6
2017-09	546.8
2017-10	547.8
2017-11	549.0
2017-12	551.3
2018-01	553.1
2018-02	554.2
2018-03	555.8
2018-04	557.9
2018-05	560.0
2018-06	562.7
2018-07	564.3
2018-08	564.4
2018-09	565.2
2018-10	567.2
2018-11	570.0
2018-12	574.8
2019-01	580.6
2019-02	583.2
2019-03 3000